﻿Ergebnisse "Saarland Open" im Bankdrücken, 17. Oktober 2009 / Saarbrücken
Klasse                                                                      Platzierung      Name                Körpergew.   1. Versuch   2. Versuch   3. Versuch  Gesamtpkt.
Junioren
bis 23 Jahre
Leichtgewicht -75kg                                                         1. Platz         Limar Mikeev        68,2 kg      100,0 kg     105,0 kg     107,5 kg                 36,80
Mittelgewicht -95kg                                                         1. Platz         Jan Becker          86,7 kg      170,0 kg     170,0 kg     175,0 kg                 88,30
                                                                            2. Platz         David Hartmann      77,2 kg      90,0 kg      100,0 kg     110,0 kg                 22,80
                                                                            3. Platz         Marco Schwarz       84,6 kg      75,0 kg      85,0 kg      90,0 kg                  5,40
Superschwergewicht +115kg                                                   1. Platz         Matthias Poppe      127,0 kg     150,0 kg     160,0 kg     170,0 kg                 43,00
Aktive bis 39 Jahre
Leichtgewicht -75kg                                                         1. Platz         Rosario Fazio       69,1 kg      140,0 kg     155,0 kg     165,0 kg                 95,90
Mittelgewicht -95kg                                                         1. Platz         Jury Waigel         84,9 kg      140,0 kg     145,0 kg     150,0 kg                 60,10
                                                                            2. Platz         Pascal Klein        94,9 kg      110,0 kg     115,0 kg     120,0 kg                 25,10
Schwergewicht -115kg                                                        1. Platz         Fatih Zeybek        97,3 kg      167,5 kg     172,5 kg     177,5 kg                 80,20
                                                                            2. Platz         Hans Müller         114,6 kg     135,0 kg     145,0 kg     155,0 kg                 30,40
Superschwergewicht +115kg                                                   1. Platz         Christian Poppe     120,4 kg     180,0 kg     200,0 kg     210,0 kg                 79,60
Masters I ab 40 Jahre
Mittelgewicht -95kg                                                         1. Platz         Frank Bachmann      94,8 kg      140,0 kg     150,0 kg     160,0 kg                 65,20
                                                                            2. Platz         Manfred Offergeld   82,5 kg      110,0 kg     122,5 kg     130,0 kg                 47,50
Superschwergewicht +115kg                                                   1. Platz         Oliver Schwarz      117,9 kg     130,0 kg     140,0 kg     150,0 kg                 22,10
Gesamtsieger / nach Relativpunkten, Reshel - Tabelle
Junioren:                                                                   Jan Becker
Aktive:                                                                     Rosario Fazio
Masters I:                                                                  Frank Bachmann
