Division,WeightClassKg,Place,Name,Team,BodyweightKg,Best3SquatKg,Best3BenchKg,Best3DeadliftKg,TotalKg,Equipment,Event,Sex
Boys,55.79,1,David Garcia #5,Pharr Valley View,51.8,163.29,92.99,188.24,444.52,Single-ply,SBD,M
Boys,51.71,2,Tuti Garcia,Los Fresnos,51.26,151.95,90.72,174.63,417.3,Single-ply,SBD,M
Boys,51.71,3,Dylan Rodriguez,Edcouch-Elsa,51.71,129.27,88.45,165.56,383.29,Single-ply,SBD,M
Boys,51.71,4,Julian Ortega,Rio Hondo,50.58,129.27,83.91,149.69,362.87,Single-ply,SBD,M
Boys,51.71,5,Christian Cavazos,Donna,48.08,92.99,58.97,111.13,263.08,Single-ply,SBD,M
Boys,55.79,1,Eleazar Duenes,Edcouch-Elsa,55.79,151.95,99.79,188.24,439.98,Single-ply,SBD,M
Boys,55.79,2,Mike Barajas,Hidalgo Early College,54.88,131.54,70.31,149.69,351.53,Single-ply,SBD,M
Boys,55.79,3,Eder Contreras,Hidalgo Early College,54.43,111.13,88.45,145.15,344.73,Single-ply,SBD,M
Boys,55.79,4,Mike Perez,Corpus Christi Tuloso-Midway,53.52,90.72,49.9,102.06,242.67,Single-ply,SBD,M
Boys,55.79,DQ,Eli Saldana,Santa Rosa,53.98,104.33,79.38,,,Single-ply,SBD,M
Boys,55.79,DQ,Nathan Bentley,Santa Rosa,54.88,97.52,,,,Single-ply,SBD,M
Boys,67.13,1,Victor Acosta,Pharr Valley View,59.96,195.04,122.47,181.44,498.95,Single-ply,SBD,M
Boys,67.13,2,Aaron Anguiano,Pharr Valley View,60.01,174.63,104.33,201.85,480.81,Single-ply,SBD,M
Boys,59.87,3,Louis Vasquez,Los Fresnos,58.06,172.37,104.33,183.7,460.4,Single-ply,SBD,M
Boys,59.87,4,Harry A,Corpus Christi Tuloso-Midway,58.97,165.56,99.79,172.37,437.72,Single-ply,SBD,M
Boys,59.87,5,Chris Morales,Edcouch-Elsa,59.87,149.69,102.06,176.9,428.64,Single-ply,SBD,M
Boys,59.87,6,Ben Guajardo,Mission Sharyland,59.42,149.69,95.25,181.44,426.38,Single-ply,SBD,M
Boys,59.87,7,Kaleb Espinoza,Donna,58.51,151.95,81.65,165.56,399.16,Single-ply,SBD,M
Boys,59.87,8,Juan Tamez,Weslaco East,59.42,156.49,77.11,147.42,381.02,Single-ply,SBD,M
Boys,59.87,9,John Galvan,Corpus Christi Tuloso-Midway,58.51,120.2,83.91,145.15,349.27,Single-ply,SBD,M
Boys,59.87,10,Adolfo Ramirez,Raymondville,57.61,124.74,83.91,133.81,342.46,Single-ply,SBD,M
Boys,59.87,11,Dylan Giles,Corpus Christi Tuloso-Midway,59.87,111.13,52.16,106.59,269.89,Single-ply,SBD,M
Boys,67.13,1,Julio Rodriguez,Raymondville,66.9,195.04,127.01,222.26,544.31,Single-ply,SBD,M
Boys,67.13,2,Emilio Tamez,Weslaco East,66.77,183.7,106.59,201.85,492.15,Single-ply,SBD,M
Boys,67.13,3,Orlando Medrano,Donna North,65.09,183.7,106.59,188.24,478.54,Single-ply,SBD,M
Boys,74.84,4,Carlos Grimaldo,Brownsville Hanna,67.31,165.56,102.06,181.44,449.06,Single-ply,SBD,M
Boys,67.13,5,Azul Barrientos,Los Fresnos,65.09,158.76,104.33,183.7,446.79,Single-ply,SBD,M
Boys,67.13,6,Denzel Castro,Weslaco East,66.41,170.1,106.59,170.1,446.79,Single-ply,SBD,M
Boys,67.13,7,Heliseo Guerrero,Rio Hondo,63.05,149.69,106.59,181.44,437.72,Single-ply,SBD,M
Boys,67.13,8,Mario Nacianceno,Pharr Valley View,65.95,145.15,95.25,190.51,430.91,Single-ply,SBD,M
Boys,67.13,9,Jorge Flores,Brownsville Hanna,62.6,156.49,97.52,158.76,412.77,Single-ply,SBD,M
Boys,67.13,10,Guillermo Sac,Hidalgo Early College,65.09,154.22,97.52,147.42,399.16,Single-ply,SBD,M
Boys,67.13,11,Rafael Ledezma,Brownsville Porter,64.86,151.95,83.91,151.95,387.82,Single-ply,SBD,M
Boys,67.13,12,Marcus Caceres,Weslaco East,66.59,154.22,95.25,136.08,385.55,Single-ply,SBD,M
Boys,67.13,13,Enrique Perez,Mission Sharyland,64.18,113.4,79.38,151.95,344.73,Single-ply,SBD,M
Boys,67.13,14,David Zavala,Raymondville,61.23,120.2,79.38,142.88,342.46,Single-ply,SBD,M
Boys,67.13,15,Ronnie Longoria,Mission Sharyland,62.6,124.74,68.04,145.15,337.93,Single-ply,SBD,M
Boys,67.13,16,Yayo Segura,Brownsville Pace,63.96,111.13,79.38,140.61,331.12,Single-ply,SBD,M
Boys,67.13,17,Jacob Castaneda,Santa Rosa,65.32,111.13,77.11,136.08,324.32,Single-ply,SBD,M
Boys,67.13,18,Javier Guzman,Rio Hondo,62.82,104.33,79.38,92.99,276.69,Single-ply,SBD,M
Boys,67.13,DQ,JJ Camacho,Brownsville Pace,61.01,108.86,74.84,,,Single-ply,SBD,M
Boys,74.84,1,Miguel Mariscal,Edcouch-Elsa,74.39,240.4,142.88,226.8,610.08,Single-ply,SBD,M
Boys,74.84,2,Bucky Barrera,Edcouch-Elsa,74.84,229.06,142.88,217.72,589.67,Single-ply,SBD,M
Boys,74.84,3,Diego Garcia,Edcouch-Elsa,74.84,238.14,131.54,217.72,587.4,Single-ply,SBD,M
Boys,74.84,4,Jesse Leyva,Raymondville,73.94,222.26,131.54,226.8,580.6,Single-ply,SBD,M
Boys,74.84,5,James Bain,Corpus Christi Tuloso-Midway,74.39,210.92,120.2,235.87,566.99,Single-ply,SBD,M
Boys,74.84,6,Miguel Salazar,Corpus Christi Tuloso-Midway,74.16,217.72,140.61,192.78,551.11,Single-ply,SBD,M
Boys,74.84,7,Christian Salazar,Corpus Christi Tuloso-Midway,73.03,190.51,120.2,195.04,505.76,Single-ply,SBD,M
Boys,74.84,8,Eliseo Garzoria,Los Fresnos,73.71,172.37,97.52,215.46,485.34,Single-ply,SBD,M
Boys,74.84,9,Jesus Espinoza,Weslaco East,74.48,183.7,106.59,195.04,485.34,Single-ply,SBD,M
Boys,74.84,10,Gilbert Guajardo,Pharr Valley View,72.67,183.7,108.86,190.51,483.08,Single-ply,SBD,M
Boys,74.84,11,Wally Olivarez,Santa Rosa,74.39,183.7,124.74,174.63,483.08,Single-ply,SBD,M
Boys,74.84,12,Roel Benitez,Rio Hondo,71.44,163.29,117.93,181.44,462.66,Single-ply,SBD,M
Boys,74.84,13,Jon Marty,Donna,73.48,172.37,95.25,188.24,455.86,Single-ply,SBD,M
Boys,74.84,14,Angel Hernandez #6,Pharr Valley View,70.58,142.88,99.79,195.04,437.72,Single-ply,SBD,M
Boys,74.84,15,Juan Zamora,Brownsville Porter,73.48,147.42,88.45,183.7,419.57,Single-ply,SBD,M
Boys,74.84,16,Dylan Thomas,Raymondville,67.59,124.74,61.23,156.49,342.46,Single-ply,SBD,M
Boys,74.84,DQ,Lucas Olivares,Brownsville Hanna,69.17,122.47,83.91,,,Single-ply,SBD,M
Boys,74.84,DQ,Ivan Rodriguez,Pharr Valley View,74.3,172.37,122.47,,,Single-ply,SBD,M
Boys,74.84,DQ,Joe Castillo #5,Santa Rosa,72.12,,,,,Single-ply,SBD,M
Boys,82.1,1,Ben Navarez,Edcouch-Elsa,82.1,276.69,176.9,278.96,732.55,Single-ply,SBD,M
Boys,82.1,2,Javi Cruz,Los Fresnos,79.83,229.06,120.2,272.16,621.42,Single-ply,SBD,M
Boys,82.1,3,Angel Casas,Corpus Christi Tuloso-Midway,81.65,204.12,127.01,183.7,514.83,Single-ply,SBD,M
Boys,82.1,4,Freddy de la Garza,Brownsville Hanna,77.34,176.9,127.01,183.7,487.61,Single-ply,SBD,M
Boys,82.1,5,Daniel Flores,Rio Hondo,79.38,183.7,111.13,174.63,469.47,Single-ply,SBD,M
Boys,82.1,6,Robert Garza,Donna,79.61,176.9,104.33,185.97,467.2,Single-ply,SBD,M
Boys,82.1,7,Adam Chapa,Donna,80.29,188.24,117.93,158.76,464.93,Single-ply,SBD,M
Boys,82.1,8,Ramon Delgado,Brownsville Hanna,80.29,176.9,83.91,204.12,464.93,Single-ply,SBD,M
Boys,82.1,9,Oscar Lopez,Los Fresnos,79.15,165.56,113.4,183.7,462.66,Single-ply,SBD,M
Boys,82.1,10,Gianni Villarreal,Corpus Christi Tuloso-Midway,81.65,181.44,108.86,149.69,439.98,Single-ply,SBD,M
Boys,82.1,11,Abel Rodriguez,Corpus Christi Tuloso-Midway,81.65,161.03,113.4,154.22,428.64,Single-ply,SBD,M
Boys,82.1,12,Jorge Ibarra,Donna,81.65,167.83,99.79,158.76,426.38,Single-ply,SBD,M
Boys,82.1,13,Juan Ramirez,Donna,78.47,154.22,81.65,176.9,412.77,Single-ply,SBD,M
Boys,82.1,14,Pablo Garza,Brownsville Pace,82.1,142.88,97.52,167.83,408.23,Single-ply,SBD,M
Boys,82.1,15,Pedro Alvarez,Rio Hondo,79.83,142.88,99.79,151.95,394.63,Single-ply,SBD,M
Boys,82.1,16,Frank Saucedo,Santa Rosa,79.38,151.95,95.25,142.88,390.09,Single-ply,SBD,M
Boys,82.1,17,Mauri Aguilar,Brownsville Pace,76.66,136.08,83.91,151.95,371.95,Single-ply,SBD,M
Boys,82.1,18,Eddie Molina,San Benito,81.37,115.67,86.18,170.1,371.95,Single-ply,SBD,M
Boys,82.1,19,Esteban Cervantes,Rio Grande City,77.11,127.01,77.11,142.88,347,Single-ply,SBD,M
Boys,82.1,20,James Lopez,Rio Grande City,77.11,127.01,79.38,124.74,331.12,Single-ply,SBD,M
Boys,82.1,21,Christian Badillo,Santa Rosa,80.29,97.52,65.77,149.69,312.98,Single-ply,SBD,M
Boys,82.1,22,Quinten Martinez,Rio Grande City,79.38,102.06,63.5,117.93,283.5,Single-ply,SBD,M
Boys,82.1,DQ,Tony Villarreal,PSJA North,80.29,,,,,Single-ply,SBD,M
Boys,82.1,DQ,Carlos Alvarez,Mercedes,78.02,,,,,Single-ply,SBD,M
Boys,82.1,DQ,Steven Mercado,Mission Sharyland,80.29,170.1,124.74,,,Single-ply,SBD,M
Boys,82.1,DQ,David Cantu,Mission Sharyland,78.47,158.76,79.38,,,Single-ply,SBD,M
Boys,89.81,1,Robert Trevino,Edcouch-Elsa,84.37,265.35,142.88,256.28,664.51,Single-ply,SBD,M
Boys,89.81,2,Arnulfo Marin,Pharr Valley View,89.09,274.42,145.15,226.8,646.37,Single-ply,SBD,M
Boys,89.81,3,Frankie Almanza,Los Fresnos,83.01,229.06,136.08,206.38,571.53,Single-ply,SBD,M
Boys,89.81,4,Jonah Cepeda,Los Fresnos,88.22,208.65,120.2,226.8,555.65,Single-ply,SBD,M
Boys,89.81,5,Aaron Zapata,Los Fresnos,88.9,206.38,127.01,219.99,553.38,Single-ply,SBD,M
Boys,89.81,6,Brandon Lopez,Donna,89.81,195.04,127.01,195.04,517.1,Single-ply,SBD,M
Boys,89.81,7,Marcoq Zuniga,San Benito,86.32,183.7,92.99,222.26,498.95,Single-ply,SBD,M
Boys,89.81,8,Omar Garza,Donna North,83.01,176.9,97.52,201.85,476.27,Single-ply,SBD,M
Boys,89.81,9,Daniel Garza,Brownsville Pace,83.69,170.1,113.4,181.44,464.93,Single-ply,SBD,M
Boys,99.79,10,Omar Leal,Brownsville Hanna,89.99,151.95,102.06,181.44,435.45,Single-ply,SBD,M
Boys,89.81,11,Frank Alvarado,Brownsville Porter,83.46,179.17,68.04,179.17,426.38,Single-ply,SBD,M
Boys,89.81,12,Jesus Barrientes,Mercedes,84.59,158.76,81.65,129.27,369.68,Single-ply,SBD,M
Boys,89.81,13,Cesar Rosales,Rio Grande City,87.09,124.74,83.91,142.88,351.53,Single-ply,SBD,M
Boys,89.81,14,Lino Rios,Rio Grande City,84.14,108.86,81.65,145.15,335.66,Single-ply,SBD,M
Boys,89.81,15,Gilbert Guerrero,Donna,87.54,106.59,63.5,124.74,294.84,Single-ply,SBD,M
Boys,89.81,DQ,John Castro,Corpus Christi Tuloso-Midway,85.05,,,,,Single-ply,SBD,M
Boys,89.81,DQ,Lazaro Bernabe,Hidalgo Early College,87.77,,,,,Single-ply,SBD,M
Boys,89.81,DQ,Thor Hernandez,PSJA North,83.91,176.9,102.06,,,Single-ply,SBD,M
Boys,89.81,DQ,Adrian Noriega,Mercedes,83.23,174.63,92.99,,,Single-ply,SBD,M
Boys,99.79,1,Julio Contreras,Edcouch-Elsa,99.79,244.94,113.4,208.65,566.99,Single-ply,SBD,M
Boys,99.79,2,Israel Alfaro,Weslaco East,98.97,215.46,142.88,204.12,562.45,Single-ply,SBD,M
Boys,99.79,3,Frank Perales,Donna North,99.79,197.31,129.27,192.78,519.36,Single-ply,SBD,M
Boys,99.79,4,David Avila,Mercedes,90.72,188.24,142.88,170.1,501.22,Single-ply,SBD,M
Boys,99.79,5,Jose Costantino,Mercedes,99.79,208.65,113.4,170.1,492.15,Single-ply,SBD,M
Boys,99.79,6,Marco Garcia,Rio Hondo,91.17,179.17,104.33,183.7,467.2,Single-ply,SBD,M
Boys,99.79,7,Marc Garcia,Brownsville Porter,97.07,195.04,102.06,170.1,467.2,Single-ply,SBD,M
Boys,99.79,8,Ricky Rodriguez,San Benito,97.61,174.63,117.93,174.63,467.2,Single-ply,SBD,M
Boys,109.77,9,Diego Moreno,Brownsville Hanna,100.02,170.1,92.99,183.7,446.79,Single-ply,SBD,M
Boys,99.79,10,Frank Lopez,Brownsville Hanna,92.53,147.42,88.45,183.7,419.57,Single-ply,SBD,M
Boys,99.79,11,James Heath,Mission Sharyland,97.07,161.03,92.99,147.42,401.43,Single-ply,SBD,M
Boys,99.79,12,Javier Elizondo,Mission Sharyland,90.95,127.01,97.52,163.29,387.82,Single-ply,SBD,M
Boys,99.79,13,Librado Lozano,Brownsville Porter,93.89,151.95,79.38,147.42,378.75,Single-ply,SBD,M
Boys,99.79,14,Gilbert Guerrero,Rio Grande City,99.79,142.88,77.11,142.88,362.87,Single-ply,SBD,M
Boys,99.79,15,Michael Gutierrez,Mercedes,92.53,140.61,81.65,129.27,351.53,Single-ply,SBD,M
Boys,99.79,16,Victor Garza,Santa Rosa,93.89,122.47,77.11,136.08,335.66,Single-ply,SBD,M
Boys,99.79,17,Armando Mireles,Donna,95.25,92.99,72.57,140.61,306.17,Single-ply,SBD,M
Boys,99.79,18,Jonathan Ojeda,Brownsville Pace,93.89,97.52,70.31,136.08,303.91,Single-ply,SBD,M
Boys,99.79,19,Jaime Vera,Rio Grande City,96.16,90.72,74.84,138.35,303.91,Single-ply,SBD,M
Boys,99.79,DQ,Vince Narvaez,Corpus Christi Tuloso-Midway,97.07,151.95,106.59,,,Single-ply,SBD,M
Boys,99.79,DQ,Robert Payan,Brownsville Porter,98.43,199.58,,,,Single-ply,SBD,M
Boys,99.79,DQ,Matthew Dixon,Corpus Christi Tuloso-Midway,92.53,226.8,,,,Single-ply,SBD,M
Boys,99.79,DQ,Joseph Rodriguez #10,Corpus Christi Tuloso-Midway,97.07,156.49,106.59,,,Single-ply,SBD,M
Boys,99.79,DQ,Kevin Perez,Corpus Christi Tuloso-Midway,92.53,120.2,,,,Single-ply,SBD,M
Boys,99.79,DQ,Jordan Hinojosa,Corpus Christi Tuloso-Midway,97.07,,,,,Single-ply,SBD,M
Boys,99.79,DQ,Armando Mireles,Donna,94.12,,,,,Single-ply,SBD,M
Boys,99.79,DQ,Cesar Villegas,Donna,99.34,,,,,Single-ply,SBD,M
Boys,109.77,1,Kevin Trevino,PSJA North,105.23,249.48,158.76,240.4,648.64,Single-ply,SBD,M
Boys,109.77,2,German Lopez,Weslaco East,107.14,240.4,161.03,226.8,628.23,Single-ply,SBD,M
Boys,109.77,3,Mando Martinez,Weslaco East,108.95,249.48,136.08,226.8,612.35,Single-ply,SBD,M
Boys,109.77,4,Agustus Hernandez,PSJA North,108.18,224.53,136.08,238.14,598.74,Single-ply,SBD,M
Boys,109.77,5,Miguel Quintana,Edcouch-Elsa,109.77,222.26,149.69,210.92,582.87,Single-ply,SBD,M
Boys,109.77,6,Roy Villarreal,Weslaco East,109.23,229.06,138.35,192.78,560.19,Single-ply,SBD,M
Boys,124.74,7,Jonathan Bolanos,Hidalgo Early College,110,217.72,136.08,199.58,553.38,Single-ply,SBD,M
Boys,109.77,8,Eddie Favata,PSJA North,102.51,204.12,147.42,188.24,539.77,Single-ply,SBD,M
Boys,109.77,9,Frankie Lopez,Corpus Christi Tuloso-Midway,106.14,208.65,138.35,183.7,530.7,Single-ply,SBD,M
Boys,109.77,10,Jonathan Grimaldo,Donna,102.97,181.44,127.01,215.46,523.9,Single-ply,SBD,M
Boys,109.77,11,Andrew Salazar,Pharr Valley View,109.13,190.51,142.88,174.63,508.02,Single-ply,SBD,M
Boys,109.77,12,Alex Valadez,Brownsville Hanna,104.55,197.31,115.67,183.7,496.68,Single-ply,SBD,M
Boys,109.77,13,Rodney Morales,Brownsville Hanna,109.32,185.97,102.06,197.31,485.34,Single-ply,SBD,M
Boys,109.77,14,Fidel Grimaldo,Donna North,101.6,170.1,111.13,195.04,476.27,Single-ply,SBD,M
Boys,109.77,15,Manny Hernandez,Rio Hondo,105.69,179.17,92.99,149.69,421.84,Single-ply,SBD,M
Boys,109.77,16,Alexis Rangel #1,Brownsville Hanna,106.82,174.63,97.52,142.88,415.04,Single-ply,SBD,M
Boys,109.77,17,Daniel Gonzalez,Brownsville Pace,103.42,163.29,90.72,149.69,403.7,Single-ply,SBD,M
Boys,124.74,18,Adrian Valle,Raymondville,109.95,156.49,79.38,136.08,371.95,Single-ply,SBD,M
Boys,109.77,19,Jose Guerrero,Rio Grande City,105.91,117.93,86.18,140.61,344.73,Single-ply,SBD,M
Boys,109.77,20,Mac Mireles,Donna North,101.6,113.4,54.43,115.67,283.5,Single-ply,SBD,M
Boys,124.74,1,Gabriel Rodriguez,Edcouch-Elsa,124.74,294.84,179.17,215.46,689.46,Single-ply,SBD,M
Boys,124.74,2,Keith Mora,Mission Sharyland,119.75,294.84,163.29,226.8,684.92,Single-ply,SBD,M
Boys,124.74,3,Josh Mohanadas,Mission Sharyland,114.31,244.94,151.95,247.21,644.1,Single-ply,SBD,M
Boys,124.74,4,Vincent Gutierrez,Corpus Christi Tuloso-Midway,121.34,226.8,154.22,204.12,585.13,Single-ply,SBD,M
Boys,124.74,5,Robert Cervantes,Raymondville,113.49,240.4,133.81,206.38,580.6,Single-ply,SBD,M
Boys,124.74,6,Gabriel Hernandez,Hidalgo Early College,117.71,210.92,127.01,217.72,555.65,Single-ply,SBD,M
Boys,124.74,7,Jose Gomez,Mercedes,110.9,226.8,131.54,192.78,551.11,Single-ply,SBD,M
Boys,124.74,8,Ramiro San Miguel,Weslaco East,124.65,208.65,136.08,204.12,548.85,Single-ply,SBD,M
Boys,124.74,9,Cristo de la Cruz,Brownsville Pace,122.02,219.99,106.59,201.85,528.44,Single-ply,SBD,M
Boys,124.74,10,Jaylon Grimaldo,Raymondville,110.45,215.46,111.13,195.04,521.63,Single-ply,SBD,M
Boys,124.74,11,Jacob Rodriguez #4,Corpus Christi Tuloso-Midway,115.67,215.46,124.74,174.63,514.83,Single-ply,SBD,M
Boys,124.74,12,Josh Castillo,Brownsville Pace,111.36,206.38,124.74,174.63,505.76,Single-ply,SBD,M
Boys,124.74,13,Kevin Garcia,Brownsville Porter,122.92,188.24,106.59,188.24,483.08,Single-ply,SBD,M
Boys,124.74,14,Christian Lopez #4,PSJA North,114.53,192.78,124.74,161.03,478.54,Single-ply,SBD,M
Boys,124.74,15,Luis Costilla,Donna North,112.94,188.24,117.93,151.95,458.13,Single-ply,SBD,M
Boys,124.74,DQ,Rudy Zarate,Hidalgo Early College,117.48,219.99,154.22,,,Single-ply,SBD,M
Boys,124.74+,1,Jose Limon,Los Fresnos,152.18,319.78,151.95,274.42,746.16,Single-ply,SBD,M
Boys,124.74+,2,Manuel Mata,PSJA North,125.19,217.72,149.69,197.31,564.72,Single-ply,SBD,M
Boys,124.74+,3,Mando Ruvio,Rio Hondo,127.23,224.53,120.2,183.7,528.44,Single-ply,SBD,M
Boys,124.74+,4,Jose Molina #1,Donna North,131.54,190.51,122.47,204.12,517.1,Single-ply,SBD,M
Boys,124.74+,5,Victor Rodriguez,Brownsville Pace,126.55,174.63,88.45,165.56,428.64,Single-ply,SBD,M
Boys,124.74+,6,Milton Botti,Brownsville Porter,134.72,167.83,68.04,167.83,403.7,Single-ply,SBD,M
Boys,124.74+,7,Jaime Morin,Rio Grande City,131.31,151.95,99.79,145.15,396.89,Single-ply,SBD,M
Boys,124.74+,DQ,Rick Hinojosa,Mercedes,129.27,,,,,Single-ply,SBD,M
Boys,124.74+,DQ,Roy Rendon,Mercedes,128.82,,,,,Single-ply,SBD,M
Boys,124.74+,DQ,Abraham Martinez,Brownsville Porter,141.52,,,,,Single-ply,SBD,M
Boys,124.74+,DQ,Pedro Salto,Edcouch-Elsa,136.08,,,,,Single-ply,SBD,M
